TOTAL: 48
12805,12785,12783
12805,12785,12790
12805,12785,12791
12805,12785,12799
12805,12785,12809
12805,12785,12810
12805,12787,12783
12805,12787,12790
12805,12787,12791
12805,12787,12799
12805,12787,12809
12805,12787,12810
12806,12785,12783
12806,12785,12790
12806,12785,12791
12806,12785,12799
12806,12785,12809
12806,12785,12810
12806,12787,12783
12806,12787,12790
12806,12787,12791
12806,12787,12799
12806,12787,12809
12806,12787,12810
12807,12786,12783
12807,12786,12790
12807,12786,12791
12807,12786,12799
12807,12786,12809
12807,12786,12810
12807,12788,12783
12807,12788,12790
12807,12788,12791
12807,12788,12799
12807,12788,12809
12807,12788,12810
12808,12786,12783
12808,12786,12790
12808,12786,12791
12808,12786,12799
12808,12786,12809
12808,12786,12810
12808,12788,12783
12808,12788,12790
12808,12788,12791
12808,12788,12799
12808,12788,12809
12808,12788,12810
