TOTAL: 21
13329,13328,13333,13340
13329,13328,13333,13522
13329,13328,13333,13523
13329,13328,13339,13340
13329,13328,13339,13522
13329,13328,13339,13523
13330,13328,253,13340
13330,13328,253,13522
13330,13328,253,13523
13330,13328,12783,13340
13330,13328,12783,13522
13330,13328,12783,13523
13330,13328,12790,13340
13330,13328,12790,13522
13330,13328,12790,13523
13330,13328,12791,13340
13330,13328,12791,13522
13330,13328,12791,13523
13330,13328,12799,13340
13330,13328,12799,13522
13330,13328,12799,13523
